{
	"transcoder" : 
	{
		"name" : "Test 2",
		"enabled" : "true",
		"description" : "второй тестовый транскодер",
		"source" : 
		{
			"uri" : "rtsp:\/\/guest:password@188.128.18.212\/mpeg4\/1\/media.amp"
		},
		"destination" : 
		[
			{
				"format" : "avi",
				"uri" : "http:\/\/*:*\/output.avi",
				"roles" : "admin"
			}
		]
	}
}

